<?xml version="1.0" encoding="utf-8"?>
<!-- Generator: Adobe Illustrator 16.0.0, SVG Export Plug-In . SVG Version: 6.00 Build 0)  -->
<!DOCTYPE svg PUBLIC "-//W3C//DTD SVG 1.1//EN" "http://www.w3.org/Graphics/SVG/1.1/DTD/svg11.dtd">
<svg version="1.1" id="Layer_1" xmlns="http://www.w3.org/2000/svg" xmlns:xlink="http://www.w3.org/1999/xlink" x="0px" y="0px"
	 width="2834.649px" height="1984.25px" viewBox="0 0 2834.649 1984.25" enable-background="new 0 0 2834.649 1984.25"
	 xml:space="preserve">
<path fill="#FFFFFF" stroke="#231F20" stroke-width="0.01" stroke-miterlimit="10" d="M2225.2,992.125
	c0,446.17-361.699,807.874-807.873,807.874c-446.178,0-807.875-361.704-807.875-807.874c0-446.178,361.697-807.874,807.875-807.874
	C1863.5,184.251,2225.2,545.947,2225.2,992.125z"/>
<circle fill="none" stroke="#231F20" stroke-width="0.01" stroke-miterlimit="10" cx="1064.471" cy="370.793" r="42.52"/>
<circle fill="none" stroke="#231F20" stroke-width="0.01" stroke-miterlimit="10" cx="1064.471" cy="1448.062" r="42.52"/>
<circle fill="none" stroke="#231F20" stroke-width="0.01" stroke-miterlimit="10" cx="1812.7" cy="370.793" r="42.52"/>
<circle fill="none" stroke="#231F20" stroke-width="0.01" stroke-miterlimit="10" cx="1812.7" cy="1448.063" r="42.52"/>
<circle fill="none" stroke="#231F20" stroke-width="0.01" stroke-miterlimit="10" cx="2165.551" cy="949.543" r="42.52"/>
<circle fill="none" stroke="#231F20" stroke-width="0.01" stroke-miterlimit="10" cx="669.099" cy="949.543" r="42.52"/>
<rect x="1391.819" y="202.235" fill="none" stroke="#231F20" stroke-width="0.01" stroke-miterlimit="10" width="51.023" height="141.732"/>
<rect x="1391.813" y="360.438" fill="none" stroke="#231F20" stroke-width="0.01" stroke-miterlimit="10" width="51.023" height="141.732"/>
<rect x="802.757" y="1227.596" transform="matrix(-0.5 -0.866 0.866 -0.5 117.897 2664.9851)" fill="none" stroke="#231F20" stroke-width="0.01" stroke-miterlimit="10" width="51.02" height="141.724"/>
<rect x="939.766" y="1148.499" transform="matrix(-0.5 -0.866 0.866 -0.5 391.9472 2665.0095)" fill="none" stroke="#231F20" stroke-width="0.01" stroke-miterlimit="10" width="51.019" height="141.726"/>
<rect x="1986.856" y="1227.549" transform="matrix(-0.5 0.866 -0.866 -0.5 4143.0039 204.853)" fill="none" stroke="#231F20" stroke-width="0.01" stroke-miterlimit="10" width="51.02" height="141.729"/>
<rect x="1849.852" y="1148.448" transform="matrix(-0.5 0.866 -0.866 -0.5 3868.9858 204.8293)" fill="none" stroke="#231F20" stroke-width="0.01" stroke-miterlimit="10" width="51.021" height="141.727"/>
</svg>
