<?xml version="1.0" encoding="utf-8"?>
<!-- Generator: Adobe Illustrator 16.0.0, SVG Export Plug-In . SVG Version: 6.00 Build 0)  -->
<!DOCTYPE svg PUBLIC "-//W3C//DTD SVG 1.1//EN" "http://www.w3.org/Graphics/SVG/1.1/DTD/svg11.dtd">
<svg version="1.1" id="Layer_1" xmlns="http://www.w3.org/2000/svg" xmlns:xlink="http://www.w3.org/1999/xlink" x="0px" y="0px"
	 width="2834.649px" height="1984.25px" viewBox="0 0 2834.649 1984.25" enable-background="new 0 0 2834.649 1984.25"
	 xml:space="preserve">
<g enable-background="new    ">
	<path fill="none" stroke="#231F20" stroke-width="0.01" d="M1115.011,900.692c13.112-2.622,31.472-4.079,48.955-4.079
		c27.101,0,44.583,4.953,56.821,16.026c9.616,8.742,15.444,22.146,15.444,37.299c0,25.938-16.317,43.127-37.01,50.12v0.584
		c15.153,5.537,24.188,19.814,28.85,39.922c6.412,27.684,11.074,46.332,15.151,53.908h-26.227
		c-3.205-5.537-7.576-22.438-13.112-46.916c-5.828-26.81-16.316-37.299-39.339-38.172h-23.896v85.088h-25.645v-193.78H1115.011z
		 M1140.653,990.151h25.936c27.1,0,44.292-14.858,44.292-37.299c0-25.644-18.358-36.425-45.167-36.716
		c-12.529,0-20.979,1.165-25.062,2.331L1140.653,990.151L1140.653,990.151z"/>
	<path fill="none" stroke="#231F20" stroke-width="0.01" d="M1439.916,995.979c0,65.272-41.669,101.698-91.208,101.698
		c-53.033,0-88.293-41.67-88.293-100.24c0-60.318,37.59-102.571,91.791-102.571C1408.152,894.865,1439.916,939.158,1439.916,995.979
		z M1287.514,996.563c0,44.583,22.729,80.425,62.65,80.425c41.377,0,62.94-37.59,62.94-80.425c0-40.213-19.522-81.009-62.649-81.009
		C1309.66,915.555,1287.514,952.271,1287.514,996.563z"/>
	<path fill="none" stroke="#231F20" stroke-width="0.01" d="M1472.546,898.07h25.643v174.839h83.924v21.562H1472.55V898.07H1472.546
		z"/>
	<path fill="none" stroke="#231F20" stroke-width="0.01" d="M1610.082,898.07h25.643v174.839h83.922v21.562h-109.562V898.07
		H1610.082z"/>
</g>
<g transform="translate(2143.70255, 17.716549999999998) ">
	<polygon fill="none" stroke="#000000" stroke-width="0.09" points="-1545.874,489.578 -1492.912,489.578 -1492.912,506.586 
		-1463.785,506.586 -1463.785,556.193 -1467.966,556.193 -1467.966,565.547 -1463.785,565.547 -1463.785,574.901 -1452.355,574.901 
		-1452.355,565.547 -1448.174,565.547 -1448.174,556.193 -1452.355,556.193 -1452.355,506.586 -1423.228,506.586 -1423.228,489.578 
		-1367.479,489.578 -1367.479,506.586 -1311.73,506.586 -1311.73,489.578 -1255.984,489.578 -1255.984,506.586 -1200.236,506.586 
		-1200.236,489.578 -1144.488,489.578 -1144.488,506.586 -1088.739,506.586 -1088.739,489.578 -1032.992,489.578 -1032.992,506.586 
		-977.244,506.586 -977.244,489.578 -921.496,489.578 -921.496,506.586 -865.748,506.586 -865.748,489.578 -810,489.578 
		-810,506.586 -754.252,506.586 -754.252,489.578 -698.506,489.578 -698.506,506.586 -642.756,506.586 -642.756,489.578 
		-587.008,489.578 -587.008,506.586 -531.26,506.586 -531.26,489.578 -475.514,489.578 -475.514,506.586 -419.766,506.586 
		-419.766,489.578 -364.016,489.578 -364.016,506.586 -308.268,506.586 -308.268,489.578 -252.52,489.578 -252.52,506.586 
		-196.773,506.586 -196.773,489.578 -141.025,489.578 -141.025,506.586 -85.277,506.586 -85.277,489.578 -29.527,489.578 
		-29.527,506.586 -0.4,506.586 -0.4,556.193 -4.582,556.193 -4.582,565.547 -0.4,565.547 -0.4,574.901 11.029,574.901 
		11.029,565.547 15.209,565.547 15.209,556.193 11.029,556.193 11.029,506.586 40.156,506.586 40.156,489.578 93.115,489.578 
		93.115,578.16 109.842,578.16 109.842,617.208 99.529,617.208 99.529,627.697 109.842,627.697 109.842,666.744 93.115,666.744 
		93.115,723.437 109.842,723.437 109.842,780.129 93.115,780.129 93.115,836.823 109.842,836.823 109.842,893.516 93.115,893.516 
		93.115,950.207 109.842,950.207 109.842,1006.901 93.115,1006.901 93.115,1063.594 109.842,1063.594 109.842,1120.287 
		93.115,1120.287 93.115,1176.981 109.842,1176.981 109.842,1233.672 93.115,1233.672 93.115,1290.365 109.842,1290.365 
		109.842,1329.412 99.529,1329.412 99.529,1339.901 109.842,1339.901 109.842,1378.948 93.115,1378.948 93.115,1467.531 
		40.156,1467.531 40.156,1450.524 11.029,1450.524 11.029,1400.916 15.209,1400.916 15.209,1391.563 11.029,1391.563 
		11.029,1382.207 -0.4,1382.207 -0.4,1391.563 -4.582,1391.563 -4.582,1400.916 -0.4,1400.916 -0.4,1450.524 -29.527,1450.524 
		-29.527,1467.531 -85.277,1467.531 -85.277,1450.524 -141.025,1450.524 -141.025,1467.531 -196.773,1467.531 -196.773,1450.524 
		-252.52,1450.524 -252.52,1467.531 -308.268,1467.531 -308.268,1450.524 -364.016,1450.524 -364.016,1467.531 -419.766,1467.531 
		-419.766,1450.524 -475.514,1450.524 -475.514,1467.531 -531.26,1467.531 -531.26,1450.524 -587.008,1450.524 -587.008,1467.531 
		-642.756,1467.531 -642.756,1450.524 -698.506,1450.524 -698.506,1467.531 -754.252,1467.531 -754.252,1450.524 -810,1450.524 
		-810,1467.531 -865.748,1467.531 -865.748,1450.524 -921.496,1450.524 -921.496,1467.531 -977.244,1467.531 -977.244,1450.524 
		-1032.992,1450.524 -1032.992,1467.531 -1088.739,1467.531 -1088.739,1450.524 -1144.488,1450.524 -1144.488,1467.531 
		-1200.236,1467.531 -1200.236,1450.524 -1255.984,1450.524 -1255.984,1467.531 -1311.73,1467.531 -1311.73,1450.524 
		-1367.479,1450.524 -1367.479,1467.531 -1423.228,1467.531 -1423.228,1450.524 -1452.355,1450.524 -1452.355,1400.916 
		-1448.174,1400.916 -1448.174,1391.563 -1452.355,1391.563 -1452.355,1382.207 -1463.785,1382.207 -1463.785,1391.563 
		-1467.966,1391.563 -1467.966,1400.916 -1463.785,1400.916 -1463.785,1450.524 -1492.912,1450.524 -1492.912,1467.531 
		-1545.874,1467.531 -1545.874,1378.948 -1562.598,1378.948 -1562.598,1339.901 -1552.285,1339.901 -1552.285,1329.412 
		-1562.598,1329.412 -1562.598,1290.365 -1545.874,1290.365 -1545.874,1233.672 -1562.598,1233.672 -1562.598,1176.981 
		-1545.874,1176.981 -1545.874,1120.287 -1562.598,1120.287 -1562.598,1063.594 -1545.874,1063.594 -1545.874,1006.901 
		-1562.598,1006.901 -1562.598,950.207 -1545.874,950.207 -1545.874,893.516 -1562.598,893.516 -1562.598,836.823 
		-1545.874,836.823 -1545.874,780.129 -1562.598,780.129 -1562.598,723.437 -1545.874,723.437 -1545.874,666.744 -1562.598,666.744 
		-1562.598,627.697 -1552.285,627.697 -1552.285,617.208 -1562.598,617.208 -1562.598,578.16 -1545.874,578.16 	"/>
</g>
</svg>
