<?xml version="1.0" encoding="utf-8"?>
<!-- Generator: Adobe Illustrator 16.0.0, SVG Export Plug-In . SVG Version: 6.00 Build 0)  -->
<!DOCTYPE svg PUBLIC "-//W3C//DTD SVG 1.1//EN" "http://www.w3.org/Graphics/SVG/1.1/DTD/svg11.dtd">
<svg version="1.1" id="Layer_1" xmlns="http://www.w3.org/2000/svg" xmlns:xlink="http://www.w3.org/1999/xlink" x="0px" y="0px"
	 width="2834.649px" height="1984.25px" viewBox="0 0 2834.649 1984.25" enable-background="new 0 0 2834.649 1984.25"
	 xml:space="preserve">
<circle fill="none" stroke="#000000" stroke-width="0.01" cx="1417.324" cy="956.69" r="566.929"/>
<circle fill="none" stroke="#000000" stroke-width="0.01" cx="2053.856" cy="1559.861" r="42.52"/>
<circle fill="none" stroke="#000000" stroke-width="0.01" cx="779.53" cy="1559.861" r="42.52"/>
<g transform="translate(2143.70255, 1240.1585) ">
	<polygon fill="none" stroke="#000000" stroke-width="0.01" points="-1562.596,-1066.437 -1492.909,-1066.437 -1492.909,-1083.162 
		-1463.225,-1083.162 -1463.225,-1072.848 -1452.912,-1072.848 -1452.912,-1083.162 -1423.225,-1083.162 -1423.225,-1066.437 
		-1367.478,-1066.437 -1367.478,-1083.162 -1311.729,-1083.162 -1311.729,-1066.437 -1255.983,-1066.437 -1255.983,-1083.162 
		-1200.235,-1083.162 -1200.235,-1066.437 -1144.485,-1066.437 -1144.485,-1083.162 -1088.737,-1083.162 -1088.737,-1066.437 
		-1032.991,-1066.437 -1032.991,-1083.162 -977.243,-1083.162 -977.243,-1066.437 -921.495,-1066.437 -921.495,-1083.162 
		-865.747,-1083.162 -865.747,-1066.437 -809.999,-1066.437 -809.999,-1083.162 -754.25,-1083.162 -754.25,-1066.437 
		-698.503,-1066.437 -698.503,-1083.162 -642.757,-1083.162 -642.757,-1066.437 -587.009,-1066.437 -587.009,-1083.162 
		-531.259,-1083.162 -531.259,-1066.437 -475.513,-1066.437 -475.513,-1083.162 -419.763,-1083.162 -419.763,-1066.437 
		-364.017,-1066.437 -364.017,-1083.162 -308.271,-1083.162 -308.271,-1066.437 -252.519,-1066.437 -252.519,-1083.162 
		-196.774,-1083.162 -196.774,-1066.437 -141.026,-1066.437 -141.026,-1083.162 -85.274,-1083.162 -85.274,-1066.437 
		-29.528,-1066.437 -29.528,-1083.162 0.159,-1083.162 0.159,-1072.848 10.47,-1072.848 10.47,-1083.162 40.155,-1083.162 
		40.155,-1066.437 109.845,-1066.437 109.845,-1013.476 93.118,-1013.476 93.118,-984.348 44.335,-984.348 44.335,-988.529 
		35.142,-988.529 35.142,-984.348 25.938,-984.348 25.938,-972.92 35.142,-972.92 35.142,-968.739 44.335,-968.739 44.335,-972.92 
		93.118,-972.92 93.118,-943.791 109.845,-943.791 109.845,-888.043 93.118,-888.043 93.118,-832.296 109.845,-832.296 
		109.845,-776.546 93.118,-776.546 93.118,-720.798 109.845,-720.798 109.845,-665.052 93.118,-665.052 93.118,-609.301 
		109.845,-609.301 109.845,-553.553 93.118,-553.553 93.118,-497.807 109.845,-497.807 109.845,-442.058 93.118,-442.058 
		93.118,-386.31 109.845,-386.31 109.845,-330.562 93.118,-330.562 93.118,-274.814 109.845,-274.814 109.845,-219.067 
		93.118,-219.067 93.118,-163.319 109.845,-163.319 109.845,-107.572 93.118,-107.572 93.118,-51.823 109.845,-51.823 
		109.845,3.925 93.118,3.925 93.118,59.673 109.845,59.673 109.845,115.421 93.118,115.421 93.118,171.17 109.845,171.17 
		109.845,226.916 93.118,226.916 93.118,282.665 109.845,282.665 109.845,338.413 93.118,338.413 93.118,394.163 109.845,394.163 
		109.845,449.911 93.118,449.911 93.118,479.039 44.335,479.039 44.335,474.857 35.142,474.857 35.142,479.039 25.938,479.039 
		25.938,490.466 35.142,490.466 35.142,494.649 44.335,494.649 44.335,490.466 93.118,490.466 93.118,519.595 109.845,519.595 
		109.845,572.555 40.155,572.555 40.155,589.279 10.47,589.279 10.47,578.967 0.159,578.967 0.159,589.279 -29.528,589.279 
		-29.528,572.555 -85.274,572.555 -85.274,589.279 -141.026,589.279 -141.026,572.555 -196.774,572.555 -196.774,589.279 
		-252.519,589.279 -252.519,572.555 -308.271,572.555 -308.271,589.279 -364.017,589.279 -364.017,572.555 -419.763,572.555 
		-419.763,589.279 -475.513,589.279 -475.513,572.555 -531.259,572.555 -531.259,589.279 -587.009,589.279 -587.009,572.555 
		-642.757,572.555 -642.757,589.279 -698.503,589.279 -698.503,572.555 -754.25,572.555 -754.25,589.279 -809.999,589.279 
		-809.999,572.555 -865.747,572.555 -865.747,589.279 -921.495,589.279 -921.495,572.555 -977.243,572.555 -977.243,589.279 
		-1032.991,589.279 -1032.991,572.555 -1088.737,572.555 -1088.737,589.279 -1144.485,589.279 -1144.485,572.555 -1200.235,572.555 
		-1200.235,589.279 -1255.983,589.279 -1255.983,572.555 -1311.729,572.555 -1311.729,589.279 -1367.478,589.279 -1367.478,572.555 
		-1423.225,572.555 -1423.225,589.279 -1452.912,589.279 -1452.912,578.967 -1463.225,578.967 -1463.225,589.279 -1492.909,589.279 
		-1492.909,572.555 -1562.596,572.555 -1562.596,519.595 -1545.872,519.595 -1545.872,490.466 -1497.09,490.466 -1497.09,494.649 
		-1487.894,494.649 -1487.894,490.466 -1478.694,490.466 -1478.694,479.039 -1487.894,479.039 -1487.894,474.857 -1497.09,474.857 
		-1497.09,479.039 -1545.872,479.039 -1545.872,449.911 -1562.596,449.911 -1562.596,394.163 -1545.872,394.163 -1545.872,338.413 
		-1562.596,338.413 -1562.596,282.665 -1545.872,282.665 -1545.872,226.916 -1562.596,226.916 -1562.596,171.17 -1545.872,171.17 
		-1545.872,115.421 -1562.596,115.421 -1562.596,59.673 -1545.872,59.673 -1545.872,3.925 -1562.596,3.925 -1562.596,-51.823 
		-1545.872,-51.823 -1545.872,-107.572 -1562.596,-107.572 -1562.596,-163.319 -1545.872,-163.319 -1545.872,-219.067 
		-1562.596,-219.067 -1562.596,-274.814 -1545.872,-274.814 -1545.872,-330.562 -1562.596,-330.562 -1562.596,-386.31 
		-1545.872,-386.31 -1545.872,-442.058 -1562.596,-442.058 -1562.596,-497.807 -1545.872,-497.807 -1545.872,-553.553 
		-1562.596,-553.553 -1562.596,-609.301 -1545.872,-609.301 -1545.872,-665.052 -1562.596,-665.052 -1562.596,-720.798 
		-1545.872,-720.798 -1545.872,-776.546 -1562.596,-776.546 -1562.596,-832.296 -1545.872,-832.296 -1545.872,-888.043 
		-1562.596,-888.043 -1562.596,-943.791 -1545.872,-943.791 -1545.872,-972.92 -1497.09,-972.92 -1497.09,-968.739 
		-1487.894,-968.739 -1487.894,-972.92 -1478.694,-972.92 -1478.694,-984.348 -1487.894,-984.348 -1487.894,-988.529 
		-1497.09,-988.529 -1497.09,-984.348 -1545.872,-984.348 -1545.872,-1013.476 -1562.596,-1013.476 	"/>
</g>
<circle fill="none" stroke="#000000" stroke-width="0.01" cx="1420.333" cy="1676.495" r="42.52"/>
</svg>
